…
# To uninstall the package, use:
# remove.packages("scorecard")
```

Examples
========

Loading the merged file for school year 2014-15
-----------------------------------------------

``` r
library(tidyverse)
scorecard::mf2014_15
#> # A tibble: 7,703 x 1,743
#>    unitid    opeid opeid6                              instnm
#>     <dbl>    <chr>  <chr>                               <chr>
#>  1 100654 00100200 001002            Alabama A & M University
#>  2 100663 00105200 001052 University of Alabama at Birmingham
#>  3 100690 02503400 025034                  Amridge University
#>  4 100706 00105500 001055 University of Alabama in Huntsville
#>  5 100724 00100500 001005            Alabama State University
#>  6 100751 00105100 001051           The University of Alabama
#>  7 100760 00100700 001007   Central Alabama Community College
#>  8 100812 00100800 001008             Athens State University
#>  9 100830 00831000 008310     Auburn University at Montgomery
#> 10 100858 00100900 001009                   Auburn University
#> # ... with 7,693 more rows, and 1739 more variables: city <chr>,
#> #   stabbr <chr>, zip <chr>, accredagency <chr>, insturl <chr>,
#> #   npcurl <chr>, sch_deg <chr>, hcm2 <dbl>, main <dbl+lbl>,
#> #   numbranch <dbl>, preddeg <dbl+lbl>, highdeg <dbl+lbl>,
#> #   control <dbl+lbl>, st_fips <dbl+lbl>, region <dbl+lbl>,
#> #   locale <dbl+lbl>, locale2 <dbl+lbl>, latitude <dbl>, longitude <dbl>,
#> #   ccbasic <dbl+lbl>, ccugprof <dbl+lbl>, ccsizset <dbl+lbl>,
#> #   hbcu <dbl+lbl>, pbi <dbl+lbl>, annhi <dbl+lbl>, tribal <dbl+lbl>,
#> #   aanapii <dbl+lbl>, hsi <dbl+lbl>, nanti <dbl+lbl>, menonly <dbl+lbl>,
…
