College Scorecard Data, 1996-2017 • scorecard
…
# install.packages("devtools")
devtools::install_github("jjchern/scorecard@v0.4.0")

# To uninstall the package, use:
# remove.packages("scorecard")

Examples

Loading the merged file for school year 2014-15

All datasets are tibbles:

library(tidyverse)
scorecard::mf2014_15
#> # A tibble: 7,703 x 1,660
#>    mf_year unitid opeid opeid6 instnm city  stabbr zip   sch_deg    main
#>    <chr>   <chr>  <chr> <chr>  <chr>  <chr> <chr>  <chr>   <dbl> <dbl+l>
#>  1 2014-15 100654 0010… 001002 Alaba… Norm… AL     35762       3 1 [Mai…
#>  2 2014-15 100663 0010… 001052 Unive… Birm… AL     3529…       3 1 [Mai…
#>  3 2014-15 100690 0250… 025034 Amrid… Mont… AL     3611…       3 1 [Mai…
#>  4 2014-15 100706 0010… 001055 Unive… Hunt… AL     35899       3 1 [Mai…
#>  5 2014-15 100724 0010… 001005 Alaba… Mont… AL     3610…       3 1 [Mai…
#>  6 2014-15 100751 0010… 001051 The U… Tusc… AL     3548…       3 1 [Mai…
#>  7 2014-15 100760 0010… 001007 Centr… Alex… AL     35010       2 1 [Mai…
#>  8 2014-15 100812 0010… 001008 Athen… Athe… AL     35611       3 1 [Mai…
#>  9 2014-15 100830 0083… 008310 Aubur… Mont… AL     3611…       3 1 [Mai…
#> 10 2014-15 100858 0010… 001009 Aubur… Aubu… AL     36849       3 1 [Mai…
#> # … with 7,693 more rows, and 1,650 more variables: numbranch <dbl>,
#> #   preddeg <dbl+lbl>, highdeg <dbl+lbl>, control <dbl+lbl>,
#> #   st_fips <dbl+lbl>, region <dbl+lbl>, adm_rate <dbl>,
#> #   adm_rate_all <dbl>, satvr25 <dbl>, satvr75 <dbl>, satmt25 <dbl>,
#> #   satmt75 <dbl>, satwr25 <dbl>, satwr75 <dbl>, satvrmid <dbl>,
#> #   satmtmid <dbl>, satwrmid <dbl>, actcm25 <dbl>, actcm75 <dbl>,
#> #   acten25 <dbl>, acten75 <dbl>, actmt25 <dbl>, actmt75 <dbl>,
#> #   actwr25 <dbl>, actwr75 <dbl>, actcmmid <dbl>, actenmid <dbl>,
#> #   actmtmid <dbl>, actwrmid <dbl>, sat_avg <dbl>, sat_avg_all <dbl>,
…
Or work with the codebook directly:

## Show variable labels
scorecard::codebook %>% 
  select(var_name, var_label)
#> # A tibble: 2,231 x 2
#>    var_name     var_label                                 
#>    <chr>        <chr>                                     
#>  1 unitid       Unit ID for institution                   
#>  2 opeid        8-digit OPE ID for institution            
#>  3 opeid6       6-digit OPE ID for institution            
#>  4 instnm       Institution name                          
#>  5 city         City                                      
#>  6 stabbr       State postcode                            
#>  7 zip          ZIP code                                  
#>  8 accredagency Accreditor for institution                
#>  9 insturl      URL for institution's homepage            
#> 10 npcurl       URL for institution's net price calculator
#> # … with 2,221 more rows
…
dplyr_seq = . %>% 
  select(one_of(vars)) %>%
  haven::as_factor() %>% 
  filter(iclevel %in% c("4-year", "2-year")) %>% 
  mutate(year = mf_year %>% parse_number() %>% as.factor()) %>% 
  group_by(iclevel, control) %>% 
  mutate_at(c("tuitionfee_in"),
            ~statar::winsorise(., probs = c(0.02, 0.98), verbose = FALSE)) %>% 
  ungroup()

## Test the functional sequence
scorecard::mf2014_15 %>% dplyr_seq()
#> # A tibble: 5,530 x 5
#>    mf_year iclevel control           tuitionfee_in year 
#>    <chr>   <fct>   <fct>                     <dbl> <fct>
#>  1 2014-15 4-year  Public                     9096 2014 
#>  2 2014-15 4-year  Public                     7510 2014 
#>  3 2014-15 4-year  Private nonprofit          6900 2014 
#>  4 2014-15 4-year  Public                     9158 2014 
#>  5 2014-15 4-year  Public                     8720 2014 
#>  6 2014-15 4-year  Public                     9826 2014 
#>  7 2014-15 2-year  Public                     3491 2014 
#>  8 2014-15 4-year  Public                       NA 2014 
#>  9 2014-15 4-year  Public                     9080 2014 
#> 10 2014-15 4-year  Public                    10200 2014 
#> # … with 5,520 more rows
…
